<?xml version="1.0" encoding="iso-8859-1"?>
<!-- Generator: Adobe Illustrator 15.0.0, SVG Export Plug-In . SVG Version: 6.00 Build 0)  -->
<!DOCTYPE svg PUBLIC "-//W3C//DTD SVG 1.1//EN" "http://www.w3.org/Graphics/SVG/1.1/DTD/svg11.dtd">
<svg version="1.1" id="Layer_1" xmlns="http://www.w3.org/2000/svg" xmlns:xlink="http://www.w3.org/1999/xlink" x="0px" y="0px"
	 width="223px" height="223px" viewBox="0 0 223 223" style="enable-background:new 0 0 223 223;" xml:space="preserve">
<g>
	<g>
		<path style="fill:#FBB017;" d="M3.121,222.251c-0.643,0-1.182-0.215-1.603-0.639c-0.447-0.448-0.675-1-0.675-1.641l1.096-27.988
			c0.098-0.946,0.598-1.611,1.448-1.957c0.309-0.111,0.593-0.164,0.862-0.164c0.562,0,1.065,0.219,1.496,0.652l8.125,8.123
			l46.879-46.881c0.45-0.449,0.977-0.676,1.566-0.676c0.586,0,1.112,0.227,1.563,0.675l7.269,7.269
			c0.448,0.449,0.676,0.976,0.676,1.564c0,0.587-0.227,1.113-0.675,1.564l-46.884,46.881l8.125,8.125
			c0.674,0.674,0.843,1.49,0.488,2.358c-0.346,0.849-1.012,1.349-1.927,1.444l-27.819,1.289H3.121z"/>
		<path style="fill:#FFFFFF;" d="M62.316,151.581c0.453,0,0.855,0.177,1.211,0.529l7.268,7.268c0.352,0.353,0.529,0.757,0.529,1.211
			c0,0.453-0.178,0.857-0.529,1.211l-47.236,47.234l8.479,8.479c0.529,0.529,0.656,1.136,0.379,1.816
			c-0.277,0.682-0.783,1.059-1.516,1.135l-27.779,1.287c-0.504,0-0.922-0.163-1.248-0.491c-0.354-0.354-0.529-0.782-0.529-1.288
			l1.096-27.969c0.076-0.732,0.455-1.236,1.137-1.514c0.236-0.084,0.461-0.127,0.674-0.127c0.426,0,0.807,0.168,1.143,0.505
			l8.479,8.478l47.232-47.234C61.457,151.758,61.861,151.581,62.316,151.581 M62.316,150.581c-0.717,0-1.381,0.284-1.92,0.822
			l-46.525,46.527l-7.771-7.771c-0.521-0.521-1.16-0.798-1.85-0.798c-0.327,0-0.668,0.062-1.012,0.186
			c-1.057,0.428-1.68,1.258-1.793,2.352l-0.004,0.031l-0.001,0.033l-1.096,27.969c-0.001,0.806,0.283,1.496,0.82,2.033
			c0.51,0.514,1.187,0.785,1.956,0.785l27.825-1.287l0.029-0.002l0.028-0.003c1.095-0.114,1.925-0.737,2.339-1.754
			c0.429-1.054,0.217-2.083-0.599-2.899l-7.771-7.771l46.529-46.527c0.539-0.542,0.822-1.205,0.822-1.918
			c0-0.716-0.284-1.379-0.821-1.917l-7.269-7.269C63.691,150.864,63.029,150.581,62.316,150.581L62.316,150.581z"/>
	</g>
	<g>
		<path style="fill:#FBB017;" d="M79.587,145.785c-0.643,0-1.182-0.215-1.603-0.639c-0.449-0.448-0.678-1.001-0.675-1.642
			l1.096-27.987c0.098-0.947,0.599-1.613,1.449-1.957c0.308-0.11,0.591-0.163,0.86-0.163c0.562,0,1.064,0.219,1.495,0.65
			l8.125,8.124l46.879-46.881c0.451-0.449,0.979-0.676,1.568-0.676s1.115,0.228,1.562,0.676l7.268,7.268
			c0.447,0.45,0.676,0.976,0.676,1.564c0,0.587-0.227,1.113-0.676,1.564l-46.881,46.882l8.125,8.124
			c0.675,0.673,0.843,1.489,0.486,2.359c-0.343,0.849-1.008,1.349-1.923,1.443l-27.821,1.289H79.587z"/>
		<path style="fill:#FFFFFF;" d="M138.783,75.115c0.451,0,0.857,0.177,1.209,0.529l7.268,7.268c0.352,0.353,0.529,0.757,0.529,1.21
			s-0.178,0.857-0.529,1.211l-47.235,47.235l8.479,8.478c0.531,0.53,0.656,1.136,0.377,1.816c-0.275,0.682-0.781,1.06-1.512,1.136
			l-27.781,1.286c-0.504,0-0.922-0.163-1.248-0.491c-0.355-0.354-0.531-0.782-0.529-1.287l1.096-27.97
			c0.076-0.731,0.453-1.237,1.137-1.513c0.235-0.085,0.46-0.127,0.673-0.127c0.426,0,0.806,0.168,1.142,0.504l8.479,8.478
			l47.233-47.234C137.924,75.292,138.328,75.115,138.783,75.115 M138.783,74.115c-0.715,0-1.379,0.283-1.92,0.819l-46.528,46.53
			l-7.771-7.771c-0.521-0.521-1.16-0.797-1.849-0.797c-0.327,0-0.668,0.062-1.011,0.186c-1.056,0.426-1.68,1.256-1.793,2.351
			l-0.004,0.032l-0.001,0.032l-1.096,27.97c-0.004,0.804,0.281,1.495,0.822,2.035c0.508,0.51,1.185,0.782,1.954,0.782l27.827-1.288
			l0.028-0.001l0.029-0.003c1.095-0.113,1.924-0.736,2.335-1.756c0.432-1.052,0.22-2.083-0.598-2.898l-7.771-7.77l46.528-46.528
			c0.539-0.542,0.822-1.205,0.822-1.918c0-0.715-0.285-1.378-0.822-1.917l-7.268-7.269C140.162,74.4,139.5,74.115,138.783,74.115
			L138.783,74.115z"/>
	</g>
	<g>
		<path style="fill:#FBB017;" d="M153.453,71.919c-0.641,0-1.18-0.214-1.602-0.638c-0.451-0.45-0.678-1.002-0.678-1.641
			l1.098-27.989c0.1-0.947,0.6-1.612,1.445-1.957c0.311-0.111,0.594-0.164,0.865-0.164c0.561,0,1.064,0.219,1.496,0.652l8.125,8.124
			l46.879-46.881c0.451-0.449,0.979-0.676,1.566-0.676s1.113,0.227,1.564,0.675l7.266,7.268c0.449,0.449,0.678,0.975,0.678,1.564
			c0,0.588-0.229,1.115-0.678,1.565L174.6,58.703l8.125,8.125c0.674,0.677,0.842,1.493,0.486,2.359
			c-0.346,0.849-1.012,1.349-1.926,1.443l-27.82,1.289H153.453z"/>
		<path style="fill:#FFFFFF;" d="M212.648,1.249c0.453,0,0.857,0.177,1.211,0.529l7.266,7.268c0.354,0.353,0.531,0.757,0.531,1.21
			s-0.178,0.858-0.531,1.212l-47.232,47.234l8.479,8.478c0.527,0.53,0.656,1.136,0.377,1.816c-0.277,0.682-0.781,1.06-1.514,1.136
			l-27.781,1.287c-0.504,0-0.92-0.163-1.248-0.491c-0.354-0.354-0.531-0.783-0.531-1.288l1.098-27.969
			c0.078-0.732,0.455-1.237,1.135-1.514c0.236-0.084,0.461-0.127,0.676-0.127c0.426,0,0.807,0.168,1.143,0.505l8.479,8.478
			l47.232-47.234C211.791,1.426,212.193,1.249,212.648,1.249 M212.648,0.249c-0.715,0-1.377,0.283-1.918,0.819l-46.527,46.53
			l-7.771-7.771c-0.52-0.521-1.16-0.798-1.85-0.798c-0.328,0-0.668,0.062-1.012,0.185c-1.055,0.428-1.678,1.257-1.793,2.35
			l-0.004,0.033l-0.002,0.034l-1.098,27.969c0,0.804,0.285,1.494,0.822,2.033c0.514,0.514,1.191,0.785,1.957,0.785l27.826-1.288
			l0.029-0.001l0.027-0.003c1.094-0.113,1.924-0.736,2.338-1.754c0.432-1.049,0.221-2.08-0.594-2.898l-7.773-7.772l46.525-46.527
			c0.539-0.54,0.824-1.204,0.824-1.919c0-0.716-0.285-1.379-0.824-1.918l-7.266-7.267C214.025,0.533,213.363,0.249,212.648,0.249
			L212.648,0.249z"/>
	</g>
</g>
</svg>
